Project 1: Global Health Determinants
…
proj <- proj %>% pivot_longer(cols = c(24:53), names_to = "Vaccine", 
    values_to = "Percent_Coverage")

Summary Statistics

I am using this section to gain a better idea of the relationships that can be drawn across different variables for each country.

# We can look at how many vaccines are available in this
# dataset, and we can confirm that every vaccine type was
# applied to each country, even if its percent coverage value
# is NA
proj %>% group_by(Vaccine) %>% unique() %>% summarize(n())

## # A tibble: 30 x 2
##    Vaccine `n()`
##    <chr>   <int>
##  1 BCG      3633
##  2 DTP1     3633
##  3 DTP3     3633
##  4 DTP4     3633
##  5 HepB_BD  3633
##  6 HepB3    3633
##  7 Hib3     3633
##  8 HPV1     3633
##  9 HPVfem   3633
## 10 IPV1     3633
## # … with 20 more rows

To get an idea of the overall vaccine coverage in each country, I can add up all of the percent coverages for each vaccine, and divide by the total maximum possible coverage, which is 100% of all 30 vaccines. Then, I can look at which country has the greatest overall vaccine coverage.

proj %>% group_by(Country)

## # A tibble: 108,990 x 25
## # Groups:   Country [188]
##    WHO_REGION ISO_code Country Continent  Year Asterisc Status `Life expectanc…
##    <chr>      <chr>    <chr>   <chr>     <dbl> <chr>    <chr>             <dbl>
##  1 EMR        AFG      Afghan… Asia       2000 <NA>     Devel…             54.8
##  2 EMR        AFG      Afghan… Asia       2000 <NA>     Devel…             54.8
##  3 EMR        AFG      Afghan… Asia       2000 <NA>     Devel…             54.8
##  4 EMR        AFG      Afghan… Asia       2000 <NA>     Devel…             54.8
##  5 EMR        AFG      Afghan… Asia       2000 <NA>     Devel…             54.8
##  6 EMR        AFG      Afghan… Asia       2000 <NA>     Devel…             54.8
##  7 EMR        AFG      Afghan… Asia       2000 <NA>     Devel…             54.8
##  8 EMR        AFG      Afghan… Asia       2000 <NA>     Devel…             54.8
##  9 EMR        AFG      Afghan… Asia       2000 <NA>     Devel…             54.8
## 10 EMR        AFG      Afghan… Asia       2000 <NA>     Devel…             54.8
## # … with 108,980 more rows, and 17 more variables: `Adult Mortality` <dbl>,
## #   `infant deaths` <dbl>, Alcohol <dbl>, `percentage expenditure` <dbl>,
## #   Measles <dbl>, BMI <dbl>, `under-five deaths` <dbl>, `Total
## #   expenditure` <dbl>, `HIV/AIDS` <dbl>, GDP <dbl>, Population <dbl>,
## #   `thinness 1-19 years` <dbl>, `thinness 5-9 years` <dbl>, `Income
## #   composition of resources` <dbl>, Schooling <dbl>, Vaccine <chr>,
## #   Percent_Coverage <dbl>

proj_extended <- proj %>% group_by(Country) %>% mutate(overall_coverage = (sum(Percent_Coverage, 
    na.rm = T)/(30 * 100)))
proj_extended %>% arrange(-overall_coverage)

## # A tibble: 108,990 x 26
## # Groups:   Country [188]
##    WHO_REGION ISO_code Country Continent  Year Asterisc Status `Life expectanc…
##    <chr>      <chr>    <chr>   <chr>     <dbl> <chr>    <chr>             <dbl>
##  1 EMR        OMN      Oman    Asia       2000 <NA>     Devel…             72.6
##  2 EMR        OMN      Oman    Asia       2000 <NA>     Devel…             72.6
##  3 EMR        OMN      Oman    Asia       2000 <NA>     Devel…             72.6
##  4 EMR        OMN      Oman    Asia       2000 <NA>     Devel…             72.6
##  5 EMR        OMN      Oman    Asia       2000 <NA>     Devel…             72.6
##  6 EMR        OMN      Oman    Asia       2000 <NA>     Devel…             72.6
##  7 EMR        OMN      Oman    Asia       2000 <NA>     Devel…             72.6
##  8 EMR        OMN      Oman    Asia       2000 <NA>     Devel…             72.6
##  9 EMR        OMN      Oman    Asia       2000 <NA>     Devel…             72.6
## 10 EMR        OMN      Oman    Asia       2000 <NA>     Devel…             72.6
## # … with 108,980 more rows, and 18 more variables: `Adult Mortality` <dbl>,
## #   `infant deaths` <dbl>, Alcohol <dbl>, `percentage expenditure` <dbl>,
## #   Measles <dbl>, BMI <dbl>, `under-five deaths` <dbl>, `Total
## #   expenditure` <dbl>, `HIV/AIDS` <dbl>, GDP <dbl>, Population <dbl>,
## #   `thinness 1-19 years` <dbl>, `thinness 5-9 years` <dbl>, `Income
## #   composition of resources` <dbl>, Schooling <dbl>, Vaccine <chr>,
## #   Percent_Coverage <dbl>, overall_coverage <dbl>

# From here, we can see that Oman looks to have the highest
# overall vaccine coverage.

My dataset includes an Asterisc column, where countries recieve an * if they report vaccine coverage over 99.5%. Originally, I tried to use this to confirm which country has the most vaccines with asterisks in that column, but I realized that that column was not accurate upon downloading. Instead, I can look at the countries that have a percent coverage vale of over 99.

proj %>% group_by(Country) %>% unique %>% filter(Percent_Coverage <= 
    99) %>% summarise(n = n()) %>% arrange(-n)

## # A tibble: 188 x 2
##    Country                  n
##    <chr>                <int>
##  1 Panama                 241
##  2 Oman                   236
##  3 Morocco                222
##  4 Bahrain                219
##  5 Brazil                 219
##  6 Honduras               218
##  7 Peru                   215
##  8 South Africa           211
##  9 Ecuador                210
## 10 Syrian Arab Republic   208
## # … with 178 more rows
…
# We can look at the average life expectancy of each country
# in 2015
proj %>% group_by(Country) %>% filter(Year == 2015) %>% summarize(mean(`Life expectancy`, 
    na.rm = T))

## # A tibble: 179 x 2
##    Country             `mean(\`Life expectancy\`, na.rm = T)`
##    <chr>                                                <dbl>
##  1 Afghanistan                                           65  
##  2 Albania                                               77.8
##  3 Algeria                                               75.6
##  4 Angola                                                52.4
##  5 Antigua and Barbuda                                   76.4
##  6 Argentina                                             76.3
##  7 Armenia                                               74.8
##  8 Australia                                             82.8
##  9 Azerbaijan                                            72.7
## 10 Bahamas                                               76.1
## # … with 169 more rows
…
# We can determine that 75.5% of countries that have above
# the global average for life expectancy are considered
# 'Developing'

# Here, were looking at countries with the greatest average
# expendature on healthcare, as a percentage of total GDP
# form 2000-2015.
proj %>% group_by(Country) %>% summarize(avg_expend = mean(`Total expenditure`, 
    na.rm = T), sd_expend = sd(`Total expenditure`, na.rm = T)) %>% 
    arrange(-avg_expend)

## # A tibble: 188 x 3
##    Country                          avg_expend sd_expend
##    <chr>                                 <dbl>     <dbl>
##  1 Marshall Islands                      17.2      0    
##  2 Tuvalu                                16.6      0    
##  3 United States of America              15.7      1.31 
##  4 Micronesia (Federated States of)      11.3      3.26 
##  5 Sweden                                 9.93     1.23 
##  6 Greece                                 9.31     0.561
##  7 Palau                                  9.27     0    
##  8 New Zealand                            9.14     2.74 
##  9 Norway                                 9.09     0.484
## 10 Uruguay                                8.9      1.50 
## # … with 178 more rows

# We can also look at the values of GDP for countries
# compared to their overall coverage. I filtered by a single
# vaccine,
proj_extended %>% mutate(overall_GDP = mean(GDP)) %>% filter(Year == 
    2000, Vaccine == "BCG") %>% select(overall_GDP, overall_coverage) %>% 
    arrange(-overall_coverage)

## # A tibble: 209 x 3
## # Groups:   Country [170]
##    Country  overall_GDP overall_coverage
##    <chr>          <dbl>            <dbl>
##  1 Oman           7831.             7.57
##  2 Oman           7831.             7.57
##  3 Bahrain       11054.             6.77
##  4 Brazil         6143.             6.67
##  5 Brazil         6143.             6.67
##  6 Honduras       1502.             6.47
##  7 Honduras       1502.             6.47
##  8 Panama         5418.             6.39
##  9 Panama         5418.             6.39
## 10 Mexico         5322.             6.25
## # … with 199 more rows

Graphing

I can better visualize this data by creating multiple different graph types, which will summarize the data found in my joined dataset. Graphing is a very useful way to organize data to explore new trends and relationships between variables that are difficult to see through the raw data and summary statistics.

Correlation Heat Map

#Build correlation matrix
cormat <- proj %>% select_if(is.numeric) %>% cor(use="pair")
tidycor <- cormat %>% as.data.frame %>% rownames_to_column("var1") %>%
pivot_longer(-1,names_to="var2",values_to="correlation")
tidycor

## # A tibble: 324 x 3
##    var1  var2                   correlation
##    <chr> <chr>                        <dbl>
##  1 Year  Year                        1     
##  2 Year  Life expectancy             0.164 
##  3 Year  Adult Mortality            -0.0900
##  4 Year  infant deaths              -0.0430
##  5 Year  Alcohol                    -0.0603
##  6 Year  percentage expenditure      0.0275
##  7 Year  Measles                    -0.0771
##  8 Year  BMI                         0.110 
##  9 Year  under-five deaths          -0.0473
## 10 Year  Total expenditure           0.0907
## # … with 314 more rows
…
